<svg width="199" height="3" viewBox="0 0 199 3" fill="none" xmlns="http://www.w3.org/2000/svg">
<line x1="1.50391" y1="1.5" x2="28.5039" y2="1.5" stroke="#424551" stroke-width="3" stroke-linecap="round"/>
<line x1="43.5039" y1="1.5" x2="70.5039" y2="1.5" stroke="#B3B7BC" stroke-width="3" stroke-linecap="round"/>
<line x1="85.5039" y1="1.5" x2="112.504" y2="1.5" stroke="#B3B7BC" stroke-width="3" stroke-linecap="round"/>
<line x1="127.504" y1="1.5" x2="154.504" y2="1.5" stroke="#B3B7BC" stroke-width="3" stroke-linecap="round"/>
<line x1="169.504" y1="1.5" x2="196.504" y2="1.5" stroke="#B3B7BC" stroke-width="3" stroke-linecap="round"/>
</svg>
