<svg width="16" height="14" viewBox="0 0 16 14" fill="none" xmlns="http://www.w3.org/2000/svg">
<path fill-rule="evenodd" clip-rule="evenodd" d="M7.99925 12.2715C4.93321 10.5252 3.22318 8.78955 2.39626 7.28361C1.54992 5.74228 1.62377 4.4441 2.0934 3.52273C3.05872 1.62892 5.80378 1.02333 7.4763 3.13865L7.99921 3.80001L8.52217 3.13868C10.195 1.02327 12.9402 1.62896 13.9055 3.52273C14.3751 4.44409 14.4489 5.74226 13.6025 7.28359C12.7756 8.78954 11.0654 10.5252 7.99925 12.2715ZM7.99928 1.73726C5.64647 -0.498482 2.17555 0.425546 0.905488 2.91723C0.20846 4.2847 0.198939 6.05212 1.22753 7.92536C2.247 9.78198 4.2796 11.7417 7.67675 13.6194L7.99924 13.7976L8.32173 13.6194C11.719 11.7417 13.7517 9.78199 14.7712 7.92538C15.7999 6.05214 15.7904 4.28472 15.0934 2.91723C13.8233 0.425498 10.3523 -0.498448 7.99928 1.73726Z" fill="#FF3F3A"/>
</svg>
