<svg width="6" height="9" viewBox="0 0 6 9" fill="none" xmlns="http://www.w3.org/2000/svg">
<path d="M2.21461 3.345C2.36461 3.315 2.50794 3.29333 2.64461 3.28C2.78461 3.26667 2.91961 3.26 3.04961 3.26C3.42961 3.26 3.76461 3.31833 4.05461 3.435C4.34794 3.54833 4.59294 3.705 4.78961 3.905C4.98961 4.105 5.13961 4.34 5.23961 4.61C5.33961 4.88 5.38961 5.17 5.38961 5.48C5.38961 5.86667 5.32128 6.22 5.18461 6.54C5.04794 6.85667 4.85794 7.13 4.61461 7.36C4.37461 7.58667 4.08628 7.76333 3.74961 7.89C3.41628 8.01667 3.05128 8.08 2.65461 8.08C2.42461 8.08 2.20461 8.055 1.99461 8.005C1.78461 7.95833 1.58794 7.895 1.40461 7.815C1.22461 7.73167 1.05628 7.63667 0.899609 7.53C0.742943 7.42333 0.602943 7.31167 0.479609 7.195L0.904609 6.615C0.994609 6.49167 1.11128 6.43 1.25461 6.43C1.34461 6.43 1.43294 6.45667 1.51961 6.51C1.60628 6.56333 1.70461 6.62333 1.81461 6.69C1.92461 6.75333 2.05294 6.81167 2.19961 6.865C2.34628 6.91833 2.52461 6.945 2.73461 6.945C2.95128 6.945 3.13961 6.91 3.29961 6.84C3.45961 6.76667 3.59128 6.66833 3.69461 6.545C3.80128 6.41833 3.87961 6.27 3.92961 6.1C3.98294 5.92667 4.00961 5.74167 4.00961 5.545C4.00961 5.16833 3.90128 4.87833 3.68461 4.675C3.47128 4.46833 3.15961 4.365 2.74961 4.365C2.41294 4.365 2.07461 4.42833 1.73461 4.555L0.879609 4.315L1.48961 0.745H5.12961V1.325C5.12961 1.42167 5.11461 1.51 5.08461 1.59C5.05794 1.66667 5.01128 1.735 4.94461 1.795C4.88128 1.85167 4.79794 1.89667 4.69461 1.93C4.59461 1.96 4.47128 1.975 4.32461 1.975H2.44961L2.21461 3.345Z" fill="#9A9CA5"/>
</svg>
